{
    "name": "Company",
    "alias": "Company",
    "description": "",
    "keywords": [],
    "priority": 0,
    "providers": [
        "Modules\\Company\\Providers\\CompanyServiceProvider"
        ,"Modules\\Company\\Providers\\PermissionServiceProvider"
    ],
    "files": []
}
